%!PS-Adobe-2.0 EPSF-2.0
%%Title: F:\home\lhsu\doc\works\numerical_analysis\101-project\Diagram1.dia
%%Creator: Dia v0.97.2
%%CreationDate: Fri Nov 16 09:43:02 2012
%%For: lhsu
%%Orientation: Portrait
%%Magnification: 1.0000
%%BoundingBox: 0 0 1574 1638
%%BeginSetup
%%EndSetup
%%EndComments
%%BeginProlog
[ /.notdef /.notdef /.notdef /.notdef /.notdef /.notdef /.notdef /.notdef /.notdef /.notdef
/.notdef /.notdef /.notdef /.notdef /.notdef /.notdef /.notdef /.notdef /.notdef /.notdef
/.notdef /.notdef /.notdef /.notdef /.notdef /.notdef /.notdef /.notdef /.notdef /.notdef
/.notdef /.notdef /space /exclam /quotedbl /numbersign /dollar /percent /ampersand /quoteright
/parenleft /parenright /asterisk /plus /comma /hyphen /period /slash /zero /one
/two /three /four /five /six /seven /eight /nine /colon /semicolon
/less /equal /greater /question /at /A /B /C /D /E
/F /G /H /I /J /K /L /M /N /O
/P /Q /R /S /T /U /V /W /X /Y
/Z /bracketleft /backslash /bracketright /asciicircum /underscore /quoteleft /a /b /c
/d /e /f /g /h /i /j /k /l /m
/n /o /p /q /r /s /t /u /v /w
/x /y /z /braceleft /bar /braceright /asciitilde /.notdef /.notdef /.notdef
/.notdef /.notdef /.notdef /.notdef /.notdef /.notdef /.notdef /.notdef /.notdef /.notdef
/.notdef /.notdef /.notdef /.notdef /.notdef /.notdef /.notdef /.notdef /.notdef /.notdef
/.notdef /.notdef /.notdef /.notdef /.notdef /.notdef /.notdef /.notdef /.notdef /.notdef
/space /exclamdown /cent /sterling /currency /yen /brokenbar /section /dieresis /copyright
/ordfeminine /guillemotleft /logicalnot /hyphen /registered /macron /degree /plusminus /twosuperior /threesuperior
/acute /mu /paragraph /periodcentered /cedilla /onesuperior /ordmasculine /guillemotright /onequarter /onehalf
/threequarters /questiondown /Agrave /Aacute /Acircumflex /Atilde /Adieresis /Aring /AE /Ccedilla
/Egrave /Eacute /Ecircumflex /Edieresis /Igrave /Iacute /Icircumflex /Idieresis /Eth /Ntilde
/Ograve /Oacute /Ocircumflex /Otilde /Odieresis /multiply /Oslash /Ugrave /Uacute /Ucircumflex
/Udieresis /Yacute /Thorn /germandbls /agrave /aacute /acircumflex /atilde /adieresis /aring
/ae /ccedilla /egrave /eacute /ecircumflex /edieresis /igrave /iacute /icircumflex /idieresis
/eth /ntilde /ograve /oacute /ocircumflex /otilde /odieresis /divide /oslash /ugrave
/uacute /ucircumflex /udieresis /yacute /thorn /ydieresis] /isolatin1encoding exch def
/cp {closepath} bind def
/c {curveto} bind def
/f {fill} bind def
/a {arc} bind def
/ef {eofill} bind def
/ex {exch} bind def
/gr {grestore} bind def
/gs {gsave} bind def
/sa {save} bind def
/rs {restore} bind def
/l {lineto} bind def
/m {moveto} bind def
/rm {rmoveto} bind def
/n {newpath} bind def
/s {stroke} bind def
/sh {show} bind def
/slc {setlinecap} bind def
/slj {setlinejoin} bind def
/slw {setlinewidth} bind def
/srgb {setrgbcolor} bind def
/rot {rotate} bind def
/sc {scale} bind def
/sd {setdash} bind def
/ff {findfont} bind def
/sf {setfont} bind def
/scf {scalefont} bind def
/sw {stringwidth pop} bind def
/tr {translate} bind def

/ellipsedict 8 dict def
ellipsedict /mtrx matrix put
/ellipse
{ ellipsedict begin
   /endangle exch def
   /startangle exch def
   /yrad exch def
   /xrad exch def
   /y exch def
   /x exch def   /savematrix mtrx currentmatrix def
   x y tr xrad yrad sc
   0 0 1 startangle endangle arc
   savematrix setmatrix
   end
} def

/mergeprocs {
dup length
3 -1 roll
dup
length
dup
5 1 roll
3 -1 roll
add
array cvx
dup
3 -1 roll
0 exch
putinterval
dup
4 2 roll
putinterval
} bind def
/Times-Roman-latin1
    /Times-Roman findfont
    dup length dict begin
	{1 index /FID ne {def} {pop pop} ifelse} forall
	/Encoding isolatin1encoding def
    currentdict end
definefont pop
/Times-Italic-latin1
    /Times-Italic findfont
    dup length dict begin
	{1 index /FID ne {def} {pop pop} ifelse} forall
	/Encoding isolatin1encoding def
    currentdict end
definefont pop
/Times-Bold-latin1
    /Times-Bold findfont
    dup length dict begin
	{1 index /FID ne {def} {pop pop} ifelse} forall
	/Encoding isolatin1encoding def
    currentdict end
definefont pop
/Times-BoldItalic-latin1
    /Times-BoldItalic findfont
    dup length dict begin
	{1 index /FID ne {def} {pop pop} ifelse} forall
	/Encoding isolatin1encoding def
    currentdict end
definefont pop
/AvantGarde-Gothic-latin1
    /AvantGarde-Gothic findfont
    dup length dict begin
	{1 index /FID ne {def} {pop pop} ifelse} forall
	/Encoding isolatin1encoding def
    currentdict end
definefont pop
/AvantGarde-BookOblique-latin1
    /AvantGarde-BookOblique findfont
    dup length dict begin
	{1 index /FID ne {def} {pop pop} ifelse} forall
	/Encoding isolatin1encoding def
    currentdict end
definefont pop
/AvantGarde-Demi-latin1
    /AvantGarde-Demi findfont
    dup length dict begin
	{1 index /FID ne {def} {pop pop} ifelse} forall
	/Encoding isolatin1encoding def
    currentdict end
definefont pop
/AvantGarde-DemiOblique-latin1
    /AvantGarde-DemiOblique findfont
    dup length dict begin
	{1 index /FID ne {def} {pop pop} ifelse} forall
	/Encoding isolatin1encoding def
    currentdict end
definefont pop
/Bookman-Light-latin1
    /Bookman-Light findfont
    dup length dict begin
	{1 index /FID ne {def} {pop pop} ifelse} forall
	/Encoding isolatin1encoding def
    currentdict end
definefont pop
/Bookman-LightItalic-latin1
    /Bookman-LightItalic findfont
    dup length dict begin
	{1 index /FID ne {def} {pop pop} ifelse} forall
	/Encoding isolatin1encoding def
    currentdict end
definefont pop
/Bookman-Demi-latin1
    /Bookman-Demi findfont
    dup length dict begin
	{1 index /FID ne {def} {pop pop} ifelse} forall
	/Encoding isolatin1encoding def
    currentdict end
definefont pop
/Bookman-DemiItalic-latin1
    /Bookman-DemiItalic findfont
    dup length dict begin
	{1 index /FID ne {def} {pop pop} ifelse} forall
	/Encoding isolatin1encoding def
    currentdict end
definefont pop
/Courier-latin1
    /Courier findfont
    dup length dict begin
	{1 index /FID ne {def} {pop pop} ifelse} forall
	/Encoding isolatin1encoding def
    currentdict end
definefont pop
/Courier-Oblique-latin1
    /Courier-Oblique findfont
    dup length dict begin
	{1 index /FID ne {def} {pop pop} ifelse} forall
	/Encoding isolatin1encoding def
    currentdict end
definefont pop
/Courier-Bold-latin1
    /Courier-Bold findfont
    dup length dict begin
	{1 index /FID ne {def} {pop pop} ifelse} forall
	/Encoding isolatin1encoding def
    currentdict end
definefont pop
/Courier-BoldOblique-latin1
    /Courier-BoldOblique findfont
    dup length dict begin
	{1 index /FID ne {def} {pop pop} ifelse} forall
	/Encoding isolatin1encoding def
    currentdict end
definefont pop
/Helvetica-latin1
    /Helvetica findfont
    dup length dict begin
	{1 index /FID ne {def} {pop pop} ifelse} forall
	/Encoding isolatin1encoding def
    currentdict end
definefont pop
/Helvetica-Oblique-latin1
    /Helvetica-Oblique findfont
    dup length dict begin
	{1 index /FID ne {def} {pop pop} ifelse} forall
	/Encoding isolatin1encoding def
    currentdict end
definefont pop
/Helvetica-Bold-latin1
    /Helvetica-Bold findfont
    dup length dict begin
	{1 index /FID ne {def} {pop pop} ifelse} forall
	/Encoding isolatin1encoding def
    currentdict end
definefont pop
/Helvetica-BoldOblique-latin1
    /Helvetica-BoldOblique findfont
    dup length dict begin
	{1 index /FID ne {def} {pop pop} ifelse} forall
	/Encoding isolatin1encoding def
    currentdict end
definefont pop
/Helvetica-Narrow-latin1
    /Helvetica-Narrow findfont
    dup length dict begin
	{1 index /FID ne {def} {pop pop} ifelse} forall
	/Encoding isolatin1encoding def
    currentdict end
definefont pop
/Helvetica-Narrow-Oblique-latin1
    /Helvetica-Narrow-Oblique findfont
    dup length dict begin
	{1 index /FID ne {def} {pop pop} ifelse} forall
	/Encoding isolatin1encoding def
    currentdict end
definefont pop
/Helvetica-Narrow-Bold-latin1
    /Helvetica-Narrow-Bold findfont
    dup length dict begin
	{1 index /FID ne {def} {pop pop} ifelse} forall
	/Encoding isolatin1encoding def
    currentdict end
definefont pop
/Helvetica-Narrow-BoldOblique-latin1
    /Helvetica-Narrow-BoldOblique findfont
    dup length dict begin
	{1 index /FID ne {def} {pop pop} ifelse} forall
	/Encoding isolatin1encoding def
    currentdict end
definefont pop
/NewCenturySchlbk-Roman-latin1
    /NewCenturySchlbk-Roman findfont
    dup length dict begin
	{1 index /FID ne {def} {pop pop} ifelse} forall
	/Encoding isolatin1encoding def
    currentdict end
definefont pop
/NewCenturySchlbk-Italic-latin1
    /NewCenturySchlbk-Italic findfont
    dup length dict begin
	{1 index /FID ne {def} {pop pop} ifelse} forall
	/Encoding isolatin1encoding def
    currentdict end
definefont pop
/NewCenturySchlbk-Bold-latin1
    /NewCenturySchlbk-Bold findfont
    dup length dict begin
	{1 index /FID ne {def} {pop pop} ifelse} forall
	/Encoding isolatin1encoding def
    currentdict end
definefont pop
/NewCenturySchlbk-BoldItalic-latin1
    /NewCenturySchlbk-BoldItalic findfont
    dup length dict begin
	{1 index /FID ne {def} {pop pop} ifelse} forall
	/Encoding isolatin1encoding def
    currentdict end
definefont pop
/Palatino-Roman-latin1
    /Palatino-Roman findfont
    dup length dict begin
	{1 index /FID ne {def} {pop pop} ifelse} forall
	/Encoding isolatin1encoding def
    currentdict end
definefont pop
/Palatino-Italic-latin1
    /Palatino-Italic findfont
    dup length dict begin
	{1 index /FID ne {def} {pop pop} ifelse} forall
	/Encoding isolatin1encoding def
    currentdict end
definefont pop
/Palatino-Bold-latin1
    /Palatino-Bold findfont
    dup length dict begin
	{1 index /FID ne {def} {pop pop} ifelse} forall
	/Encoding isolatin1encoding def
    currentdict end
definefont pop
/Palatino-BoldItalic-latin1
    /Palatino-BoldItalic findfont
    dup length dict begin
	{1 index /FID ne {def} {pop pop} ifelse} forall
	/Encoding isolatin1encoding def
    currentdict end
definefont pop
/Symbol-latin1
    /Symbol findfont
definefont pop
/ZapfChancery-MediumItalic-latin1
    /ZapfChancery-MediumItalic findfont
    dup length dict begin
	{1 index /FID ne {def} {pop pop} ifelse} forall
	/Encoding isolatin1encoding def
    currentdict end
definefont pop
/ZapfDingbats-latin1
    /ZapfDingbats findfont
    dup length dict begin
	{1 index /FID ne {def} {pop pop} ifelse} forall
	/Encoding isolatin1encoding def
    currentdict end
definefont pop
28.346000 -28.346000 scale
7.821507 196.375000 translate
%%EndProlog


1.000000 1.000000 1.000000 srgb
n 21.292117 -250.905280 5.048845 3.198084 0 360 ellipse f
0.100000 slw
[] 0 sd
[] 0 sd
0 slj
0.000000 0.000000 0.000000 srgb
n 21.292117 -250.905280 5.048845 3.198084 0 360 ellipse cp s
/Helvetica-latin1 ff 0.560000 scf sf
(Call func_your) dup sw 2 div 21.292117 ex sub -251.260280 m
 gs 1 -1 sc sh gr
(with Lsystem) dup sw 2 div 21.292117 ex sub -250.460280 m
 gs 1 -1 sc sh gr
0.100000 slw
[] 0 sd
[] 0 sd
0 slc
n 21.279852 -247.657715 m 21.266176 -244.036800 l s
[] 0 sd
0 slj
0 slc
n 21.264760 -243.661803 m 21.016650 -244.162743 l 21.266176 -244.036800 l 21.516646 -244.160855 l ef
n 21.264760 -243.661803 m 21.016650 -244.162743 l 21.266176 -244.036800 l 21.516646 -244.160855 l cp s
1.000000 1.000000 1.000000 srgb
n 15.676249 -243.550000 m 26.852426 -243.550000 l 25.141765 -238.850000 l 13.965589 -238.850000 l ef
0.100000 slw
[] 0 sd
[] 0 sd
0 slj
0.000000 0.000000 0.000000 srgb
n 15.676249 -243.550000 m 26.852426 -243.550000 l 25.141765 -238.850000 l 13.965589 -238.850000 l cp s
(Get A, B,) dup sw 2 div 20.409007 ex sub -241.555000 m
 gs 1 -1 sc sh gr
(type, sprs,symm, dd) dup sw 2 div 20.409007 ex sub -240.755000 m
 gs 1 -1 sc sh gr
1.000000 1.000000 1.000000 srgb
n 20.710932 -236.705330 m 24.232524 -234.327665 l 20.710932 -231.950000 l 17.189340 -234.327665 l ef
0.100000 slw
[] 0 sd
[] 0 sd
0 slj
0.000000 0.000000 0.000000 srgb
n 20.710932 -236.705330 m 24.232524 -234.327665 l 20.710932 -231.950000 l 17.189340 -234.327665 l cp s
(type=0) dup sw 2 div 20.710932 ex sub -234.282665 m
 gs 1 -1 sc sh gr
1.000000 1.000000 1.000000 srgb
n 9.300000 -237.687205 m 12.499410 -236.087500 l 9.300000 -234.487795 l 6.100590 -236.087500 l ef
0.100000 slw
[] 0 sd
[] 0 sd
0 slj
0.000000 0.000000 0.000000 srgb
n 9.300000 -237.687205 m 12.499410 -236.087500 l 9.300000 -234.487795 l 6.100590 -236.087500 l cp s
(type=1) dup sw 2 div 9.300000 ex sub -236.042500 m
 gs 1 -1 sc sh gr
1.000000 1.000000 1.000000 srgb
n 8.530026 -232.660505 m 11.109462 -230.560773 l 8.530026 -228.461041 l 5.950590 -230.560773 l ef
0.100000 slw
[] 0 sd
[] 0 sd
0 slj
0.000000 0.000000 0.000000 srgb
n 8.530026 -232.660505 m 11.109462 -230.560773 l 8.530026 -228.461041 l 5.950590 -230.560773 l cp s
(type=2) dup sw 2 div 8.530026 ex sub -230.515773 m
 gs 1 -1 sc sh gr
1.000000 1.000000 1.000000 srgb
n 8.669670 -226.966677 m 11.767460 -224.490165 l 8.669670 -222.013653 l 5.571880 -224.490165 l ef
0.100000 slw
[] 0 sd
[] 0 sd
0 slj
0.000000 0.000000 0.000000 srgb
n 8.669670 -226.966677 m 11.767460 -224.490165 l 8.669670 -222.013653 l 5.571880 -224.490165 l cp s
(type=3) dup sw 2 div 8.669670 ex sub -224.445165 m
 gs 1 -1 sc sh gr
1.000000 1.000000 1.000000 srgb
n 6.729433 -220.435305 m 9.608276 -218.637223 l 6.729433 -216.839141 l 3.850590 -218.637223 l ef
0.100000 slw
[] 0 sd
[] 0 sd
0 slj
0.000000 0.000000 0.000000 srgb
n 6.729433 -220.435305 m 9.608276 -218.637223 l 6.729433 -216.839141 l 3.850590 -218.637223 l cp s
(type=4) dup sw 2 div 6.729433 ex sub -218.592223 m
 gs 1 -1 sc sh gr
1.000000 1.000000 1.000000 srgb
n 7.294670 -216.128400 m 9.720697 -213.790165 l 7.294670 -211.451930 l 4.868643 -213.790165 l ef
0.100000 slw
[] 0 sd
[] 0 sd
0 slj
0.000000 0.000000 0.000000 srgb
n 7.294670 -216.128400 m 9.720697 -213.790165 l 7.294670 -211.451930 l 4.868643 -213.790165 l cp s
(type=5) dup sw 2 div 7.294670 ex sub -213.745165 m
 gs 1 -1 sc sh gr
1.000000 1.000000 1.000000 srgb
n 5.713879 -210.614098 m 8.277167 -208.492810 l 5.713879 -206.371522 l 3.150590 -208.492810 l ef
0.100000 slw
[] 0 sd
[] 0 sd
0 slj
0.000000 0.000000 0.000000 srgb
n 5.713879 -210.614098 m 8.277167 -208.492810 l 5.713879 -206.371522 l 3.150590 -208.492810 l cp s
(type=6) dup sw 2 div 5.713879 ex sub -208.447810 m
 gs 1 -1 sc sh gr
1.000000 1.000000 1.000000 srgb
n 19.644670 -230.019309 m 21.909961 -228.165165 l 19.644670 -226.311022 l 17.379379 -228.165165 l ef
0.100000 slw
[] 0 sd
[] 0 sd
0 slj
0.000000 0.000000 0.000000 srgb
n 19.644670 -230.019309 m 21.909961 -228.165165 l 19.644670 -226.311022 l 17.379379 -228.165165 l cp s
(dd=0) dup sw 2 div 19.644670 ex sub -228.120165 m
 gs 1 -1 sc sh gr
1.000000 1.000000 1.000000 srgb
n 18.146636 -199.276682 5.703364 2.851682 0 360 ellipse f
0.100000 slw
[] 0 sd
[] 0 sd
0 slj
0.000000 0.000000 0.000000 srgb
n 18.146636 -199.276682 5.703364 2.851682 0 360 ellipse cp s
(Return X) dup sw 2 div 18.146636 ex sub -199.231682 m
 gs 1 -1 sc sh gr
1.000000 1.000000 1.000000 srgb
n 12.300000 -218.137500 m 12.300000 -212.787500 l 19.800000 -212.787500 l 19.800000 -218.137500 l f
0.100000 slw
[] 0 sd
[] 0 sd
0 slj
0.000000 0.000000 0.000000 srgb
n 12.300000 -218.137500 m 12.300000 -212.787500 l 19.800000 -212.787500 l 19.800000 -218.137500 l cp s
(Call ppconjuu) dup sw 2 div 16.050000 ex sub -215.817500 m
 gs 1 -1 sc sh gr
(with A, B) dup sw 2 div 16.050000 ex sub -215.017500 m
 gs 1 -1 sc sh gr
1.000000 1.000000 1.000000 srgb
n 21.813750 -209.862500 m 21.813750 -206.362500 l 29.636250 -206.362500 l 29.636250 -209.862500 l f
0.100000 slw
[] 0 sd
[] 0 sd
0 slj
0.000000 0.000000 0.000000 srgb
n 21.813750 -209.862500 m 21.813750 -206.362500 l 29.636250 -206.362500 l 29.636250 -209.862500 l cp s
(Let X be zero vector) dup sw 2 div 25.725000 ex sub -208.467500 m
 gs 1 -1 sc sh gr
(\(fallback\)) dup sw 2 div 25.725000 ex sub -207.667500 m
 gs 1 -1 sc sh gr
1.000000 1.000000 1.000000 srgb
n -2.461250 -238.937500 m -2.461250 -235.287500 l 2.461250 -235.287500 l 2.461250 -238.937500 l f
0.100000 slw
[] 0 sd
[] 0 sd
0 slj
0.000000 0.000000 0.000000 srgb
n -2.461250 -238.937500 m -2.461250 -235.287500 l 2.461250 -235.287500 l 2.461250 -238.937500 l cp s
(Call ltri) dup sw 2 div 0.000000 ex sub -237.467500 m
 gs 1 -1 sc sh gr
(with A, B) dup sw 2 div 0.000000 ex sub -236.667500 m
 gs 1 -1 sc sh gr
1.000000 1.000000 1.000000 srgb
n -2.800000 -233.287500 m -2.800000 -229.037500 l 1.650000 -229.037500 l 1.650000 -233.287500 l f
0.100000 slw
[] 0 sd
[] 0 sd
0 slj
0.000000 0.000000 0.000000 srgb
n -2.800000 -233.287500 m -2.800000 -229.037500 l 1.650000 -229.037500 l 1.650000 -233.287500 l cp s
(Call utri) dup sw 2 div -0.575000 ex sub -231.517500 m
 gs 1 -1 sc sh gr
(with A, B) dup sw 2 div -0.575000 ex sub -230.717500 m
 gs 1 -1 sc sh gr
1.000000 1.000000 1.000000 srgb
n -2.150000 -226.787500 m -2.150000 -223.137500 l 2.100000 -223.137500 l 2.100000 -226.787500 l f
0.100000 slw
[] 0 sd
[] 0 sd
0 slj
0.000000 0.000000 0.000000 srgb
n -2.150000 -226.787500 m -2.150000 -223.137500 l 2.100000 -223.137500 l 2.100000 -226.787500 l cp s
(Call trid) dup sw 2 div -0.025000 ex sub -225.317500 m
 gs 1 -1 sc sh gr
(with A, B) dup sw 2 div -0.025000 ex sub -224.517500 m
 gs 1 -1 sc sh gr
1.000000 1.000000 1.000000 srgb
n -3.400000 -216.675000 m -3.400000 -212.675000 l 1.400000 -212.675000 l 1.400000 -216.675000 l f
0.100000 slw
[] 0 sd
[] 0 sd
0 slj
0.000000 0.000000 0.000000 srgb
n -3.400000 -216.675000 m -3.400000 -212.675000 l 1.400000 -212.675000 l 1.400000 -216.675000 l cp s
(Call arrow) dup sw 2 div -1.000000 ex sub -215.030000 m
 gs 1 -1 sc sh gr
(with A, B) dup sw 2 div -1.000000 ex sub -214.230000 m
 gs 1 -1 sc sh gr
1.000000 1.000000 1.000000 srgb
n -3.000000 -210.375000 m -3.000000 -206.675000 l 1.850000 -206.675000 l 1.850000 -210.375000 l f
0.100000 slw
[] 0 sd
[] 0 sd
0 slj
0.000000 0.000000 0.000000 srgb
n -3.000000 -210.375000 m -3.000000 -206.675000 l 1.850000 -206.675000 l 1.850000 -210.375000 l cp s
(Call bonus) dup sw 2 div -0.575000 ex sub -208.880000 m
 gs 1 -1 sc sh gr
(with A, B) dup sw 2 div -0.575000 ex sub -208.080000 m
 gs 1 -1 sc sh gr
1.000000 1.000000 1.000000 srgb
n 31.169770 -234.292830 m 34.100100 -232.390165 l 31.169770 -230.487500 l 28.239440 -232.390165 l ef
0.100000 slw
[] 0 sd
[] 0 sd
0 slj
0.000000 0.000000 0.000000 srgb
n 31.169770 -234.292830 m 34.100100 -232.390165 l 31.169770 -230.487500 l 28.239440 -232.390165 l cp s
(sprs=0) dup sw 2 div 31.169770 ex sub -232.345165 m
 gs 1 -1 sc sh gr
1.000000 1.000000 1.000000 srgb
n 28.119770 -225.825475 m 31.317929 -223.815165 l 28.119770 -221.804855 l 24.921610 -223.815165 l ef
0.100000 slw
[] 0 sd
[] 0 sd
0 slj
0.000000 0.000000 0.000000 srgb
n 28.119770 -225.825475 m 31.317929 -223.815165 l 28.119770 -221.804855 l 24.921610 -223.815165 l cp s
(symm=1) dup sw 2 div 28.119770 ex sub -223.770165 m
 gs 1 -1 sc sh gr
1.000000 1.000000 1.000000 srgb
n 33.944870 -228.618706 m 37.290126 -226.815165 l 33.944870 -225.011624 l 30.599614 -226.815165 l ef
0.100000 slw
[] 0 sd
[] 0 sd
0 slj
0.000000 0.000000 0.000000 srgb
n 33.944870 -228.618706 m 37.290126 -226.815165 l 33.944870 -225.011624 l 30.599614 -226.815165 l cp s
(symm=0) dup sw 2 div 33.944870 ex sub -226.770165 m
 gs 1 -1 sc sh gr
1.000000 1.000000 1.000000 srgb
n 40.476650 -227.023208 m 43.750200 -224.630354 l 40.476650 -222.237500 l 37.203100 -224.630354 l ef
0.100000 slw
[] 0 sd
[] 0 sd
0 slj
0.000000 0.000000 0.000000 srgb
n 40.476650 -227.023208 m 43.750200 -224.630354 l 40.476650 -222.237500 l 37.203100 -224.630354 l cp s
(A=A') dup sw 2 div 40.476650 ex sub -224.985354 m
 gs 1 -1 sc sh gr
(\(check\)) dup sw 2 div 40.476650 ex sub -224.185354 m
 gs 1 -1 sc sh gr
1.000000 1.000000 1.000000 srgb
n 43.705200 -214.037500 m 43.705200 -210.237500 l 47.645200 -210.237500 l 47.645200 -214.037500 l f
0.100000 slw
[] 0 sd
[] 0 sd
0 slj
0.000000 0.000000 0.000000 srgb
n 43.705200 -214.037500 m 43.705200 -210.237500 l 47.645200 -210.237500 l 47.645200 -214.037500 l cp s
(Call plu) dup sw 2 div 45.675200 ex sub -212.492500 m
 gs 1 -1 sc sh gr
(with A, B) dup sw 2 div 45.675200 ex sub -211.692500 m
 gs 1 -1 sc sh gr
1.000000 1.000000 1.000000 srgb
n 34.850200 -219.237500 m 34.850200 -214.437500 l 40.850200 -214.437500 l 40.850200 -219.237500 l f
0.100000 slw
[] 0 sd
[] 0 sd
0 slj
0.000000 0.000000 0.000000 srgb
n 34.850200 -219.237500 m 34.850200 -214.437500 l 40.850200 -214.437500 l 40.850200 -219.237500 l cp s
(Call cholll) dup sw 2 div 37.850200 ex sub -217.192500 m
 gs 1 -1 sc sh gr
(with A) dup sw 2 div 37.850200 ex sub -216.392500 m
 gs 1 -1 sc sh gr
1.000000 1.000000 1.000000 srgb
n 32.209942 -212.787500 m 40.100200 -212.787500 l 38.880900 -209.437500 l 30.990642 -209.437500 l ef
0.100000 slw
[] 0 sd
[] 0 sd
0 slj
0.000000 0.000000 0.000000 srgb
n 32.209942 -212.787500 m 40.100200 -212.787500 l 38.880900 -209.437500 l 30.990642 -209.437500 l cp s
(get L, d) dup sw 2 div 35.545421 ex sub -211.067500 m
 gs 1 -1 sc sh gr
1.000000 1.000000 1.000000 srgb
n 38.144870 -206.930330 m 40.600200 -205.177665 l 38.144870 -203.425000 l 35.689540 -205.177665 l ef
0.100000 slw
[] 0 sd
[] 0 sd
0 slj
0.000000 0.000000 0.000000 srgb
n 38.144870 -206.930330 m 40.600200 -205.177665 l 38.144870 -203.425000 l 35.689540 -205.177665 l cp s
(d=1) dup sw 2 div 38.144870 ex sub -205.132665 m
 gs 1 -1 sc sh gr
1.000000 1.000000 1.000000 srgb
n 28.600200 -203.050000 m 28.600200 -199.550000 l 34.200200 -199.550000 l 34.200200 -203.050000 l f
0.100000 slw
[] 0 sd
[] 0 sd
0 slj
0.000000 0.000000 0.000000 srgb
n 28.600200 -203.050000 m 28.600200 -199.550000 l 34.200200 -199.550000 l 34.200200 -203.050000 l cp s
(Call spddd) dup sw 2 div 31.400200 ex sub -201.655000 m
 gs 1 -1 sc sh gr
(with L, B) dup sw 2 div 31.400200 ex sub -200.855000 m
 gs 1 -1 sc sh gr
0.100000 slw
[] 0 sd
[] 0 sd
0 slc
n 20.514452 -238.799884 m 20.585982 -237.171750 l s
[] 0 sd
0 slj
0 slc
n 20.602441 -236.797112 m 20.330736 -237.285657 l 20.585982 -237.171750 l 20.830254 -237.307603 l ef
n 20.602441 -236.797112 m 20.330736 -237.285657 l 20.585982 -237.171750 l 20.830254 -237.307603 l cp s
0.100000 slw
[] 0 sd
[] 0 sd
0 slc
n 17.784373 -234.779009 m 12.303026 -235.624363 l s
[] 0 sd
0 slj
0 slc
n 11.932408 -235.681521 m 12.464671 -235.852389 l 12.303026 -235.624363 l 12.388460 -235.358231 l ef
n 11.932408 -235.681521 m 12.464671 -235.852389 l 12.303026 -235.624363 l 12.388460 -235.358231 l cp s
0.100000 slw
[] 0 sd
[] 0 sd
0 slc
n 6.596960 -236.385416 m 2.995339 -236.782369 l s
[] 0 sd
0 slj
0 slc
n 2.622596 -236.823450 m 3.146974 -237.017170 l 2.995339 -236.782369 l 3.092199 -236.520179 l ef
n 2.622596 -236.823450 m 3.146974 -237.017170 l 2.995339 -236.782369 l 3.092199 -236.520179 l cp s
0.100000 slw
[] 0 sd
[] 0 sd
0 slc
n 9.085090 -234.544914 m 8.866106 -232.973091 l s
[] 0 sd
0 slj
0 slc
n 8.814361 -232.601679 m 8.635746 -233.131392 l 8.866106 -232.973091 l 9.130963 -233.062399 l ef
n 8.814361 -232.601679 m 8.635746 -233.131392 l 8.866106 -232.973091 l 9.130963 -233.062399 l cp s
0.100000 slw
[] 0 sd
[] 0 sd
0 slc
n 8.578301 -228.462145 m 8.601438 -227.456363 l s
[] 0 sd
0 slj
0 slc
n 8.610062 -227.081462 m 8.348629 -227.575581 l 8.601438 -227.456363 l 8.848497 -227.587079 l ef
n 8.610062 -227.081462 m 8.348629 -227.575581 l 8.601438 -227.456363 l 8.848497 -227.587079 l cp s
0.100000 slw
[] 0 sd
[] 0 sd
0 slc
n 8.106935 -222.413377 m 7.576459 -220.455645 l s
[] 0 sd
0 slj
0 slc
n 7.478384 -220.093697 m 7.367852 -220.641677 l 7.576459 -220.455645 l 7.850449 -220.510911 l ef
n 7.478384 -220.093697 m 7.367852 -220.641677 l 7.576459 -220.455645 l 7.850449 -220.510911 l cp s
0.100000 slw
[] 0 sd
[] 0 sd
0 slc
n 6.929253 -216.923712 m 6.987888 -216.420906 l s
[] 0 sd
0 slj
0 slc
n 7.031324 -216.048430 m 6.725092 -216.516107 l 6.987888 -216.420906 l 7.221726 -216.574022 l ef
n 7.031324 -216.048430 m 6.725092 -216.516107 l 6.987888 -216.420906 l 7.221726 -216.574022 l cp s
0.100000 slw
[] 0 sd
[] 0 sd
0 slc
n 6.741142 -211.935250 m 6.372646 -210.700391 l s
[] 0 sd
0 slj
0 slc
n 6.265414 -210.341050 m 6.168829 -210.891659 l 6.372646 -210.700391 l 6.647951 -210.748684 l ef
n 6.265414 -210.341050 m 6.168829 -210.891659 l 6.372646 -210.700391 l 6.647951 -210.748684 l cp s
0.100000 slw
[] 0 sd
[] 0 sd
0 slc
n 6.088163 -230.722149 m 2.185333 -230.980077 l s
[] 0 sd
0 slj
0 slc
n 1.811149 -231.004806 m 2.326547 -231.221290 l 2.185333 -230.980077 l 2.293575 -230.722378 l ef
n 1.811149 -231.004806 m 2.326547 -231.221290 l 2.185333 -230.980077 l 2.293575 -230.722378 l cp s
0.100000 slw
[] 0 sd
[] 0 sd
0 slc
n 5.710065 -224.650945 m 2.635816 -224.817952 l s
[] 0 sd
0 slj
0 slc
n 2.261368 -224.838294 m 2.774193 -225.060803 l 2.635816 -224.817952 l 2.747070 -224.561540 l ef
n 2.261368 -224.838294 m 2.774193 -225.060803 l 2.635816 -224.817952 l 2.747070 -224.561540 l cp s
0.100000 slw
[] 0 sd
[] 0 sd
0 slc
n 5.065072 -214.028008 m 1.932362 -214.362190 l s
[] 0 sd
0 slj
0 slc
n 1.559477 -214.401967 m 2.083175 -214.597520 l 1.932362 -214.362190 l 2.030138 -214.100341 l ef
n 1.559477 -214.401967 m 2.083175 -214.597520 l 1.932362 -214.362190 l 2.030138 -214.100341 l cp s
0.100000 slw
[] 0 sd
[] 0 sd
0 slc
n 3.106051 -208.506158 m 2.383744 -208.509856 l s
[] 0 sd
0 slj
0 slc
n 2.008749 -208.511775 m 2.510022 -208.759212 l 2.383744 -208.509856 l 2.507463 -208.259219 l ef
n 2.008749 -208.511775 m 2.510022 -208.759212 l 2.383744 -208.509856 l 2.507463 -208.259219 l cp s
0.100000 slw
[] 0 sd
[] 0 sd
0 slc
n 20.334903 -232.154391 m 20.016228 -230.312598 l s
[] 0 sd
0 slj
0 slc
n 19.952294 -229.943088 m 19.791199 -230.478391 l 20.016228 -230.312598 l 20.283879 -230.393145 l ef
n 19.952294 -229.943088 m 19.791199 -230.478391 l 20.016228 -230.312598 l 20.283879 -230.393145 l cp s
0.100000 slw
[] 0 sd
[] 0 sd
0 slc
n 8.306641 -208.466986 m 9.079286 -208.459290 l s
[] 0 sd
0 slj
0 slc
n 9.454267 -208.455555 m 8.951802 -208.210547 l 9.079286 -208.459290 l 8.956782 -208.710522 l ef
n 9.454267 -208.455555 m 8.951802 -208.210547 l 9.079286 -208.459290 l 8.956782 -208.710522 l cp s
0.100000 slw
[] 0 sd
[] 0 sd
0 slc
n 19.207074 -226.618811 m 16.953529 -218.655346 l s
[] 0 sd
0 slj
0 slc
n 16.851419 -218.294515 m 16.747012 -218.843696 l 16.953529 -218.655346 l 17.228119 -218.707549 l ef
n 16.851419 -218.294515 m 16.747012 -218.843696 l 16.953529 -218.655346 l 17.228119 -218.707549 l cp s
0.100000 slw
[] 0 sd
[] 0 sd
0 slc
n 8.643722 -217.985188 m 11.791336 -216.913064 l s
[] 0 sd
0 slj
0 slc
n 12.146309 -216.792155 m 11.592406 -216.716718 l 11.791336 -216.913064 l 11.753618 -217.190016 l ef
n 12.146309 -216.792155 m 11.592406 -216.716718 l 11.791336 -216.913064 l 11.753618 -217.190016 l cp s
0.100000 slw
[] 0 sd
[] 0 sd
0 slc
n 21.251670 -228.754277 m 28.790571 -231.517972 l s
[] 0 sd
0 slj
0 slc
n 29.142658 -231.647044 m 28.759257 -231.240223 l 28.790571 -231.517972 l 28.587161 -231.709672 l ef
n 29.142658 -231.647044 m 28.759257 -231.240223 l 28.790571 -231.517972 l 28.587161 -231.709672 l cp s
0.100000 slw
[] 0 sd
[] 0 sd
0 slc
n 31.904365 -230.914410 m 33.000967 -228.711405 l s
[] 0 sd
0 slj
0 slc
n 33.168075 -228.375697 m 32.721459 -228.711903 l 33.000967 -228.711405 l 33.169070 -228.934713 l ef
n 33.168075 -228.375697 m 32.721459 -228.711903 l 33.000967 -228.711405 l 33.169070 -228.934713 l cp s
0.100000 slw
[] 0 sd
[] 0 sd
0 slc
n 36.066582 -226.105475 m 37.723443 -225.551272 l s
[] 0 sd
0 slj
0 slc
n 38.079076 -225.432317 m 37.525595 -225.353836 l 37.723443 -225.551272 l 37.684202 -225.828013 l ef
n 38.079076 -225.432317 m 37.525595 -225.353836 l 37.723443 -225.551272 l 37.684202 -225.828013 l cp s
0.100000 slw
[] 0 sd
[] 0 sd
0 slc
n 41.256083 -222.757265 m 44.676855 -214.536665 l s
[] 0 sd
0 slj
0 slc
n 44.820925 -214.190444 m 44.398018 -214.556025 l 44.676855 -214.536665 l 44.859645 -214.748118 l ef
n 44.820925 -214.190444 m 44.398018 -214.556025 l 44.676855 -214.536665 l 44.859645 -214.748118 l cp s
0.100000 slw
[] 0 sd
[] 0 sd
0 slc
n 39.816030 -222.670250 m 38.829006 -219.741685 l s
[] 0 sd
0 slj
0 slc
n 38.709238 -219.386325 m 38.632023 -219.939983 l 38.829006 -219.741685 l 39.105836 -219.780293 l ef
n 38.709238 -219.386325 m 38.632023 -219.939983 l 38.829006 -219.741685 l 39.105836 -219.780293 l cp s
0.100000 slw
[] 0 sd
[] 0 sd
0 slc
n 36.864085 -214.388022 m 36.421720 -213.289200 l s
[] 0 sd
0 slj
0 slc
n 36.281675 -212.941332 m 36.236490 -213.498520 l 36.421720 -213.289200 l 36.700314 -213.311793 l ef
n 36.281675 -212.941332 m 36.236490 -213.498520 l 36.421720 -213.289200 l 36.700314 -213.311793 l cp s
0.100000 slw
[] 0 sd
[] 0 sd
0 slc
n 36.300949 -209.387544 m 37.349202 -206.994264 l s
[] 0 sd
0 slj
0 slc
n 37.499653 -206.650768 m 37.070055 -207.008462 l 37.349202 -206.994264 l 37.528049 -207.209063 l ef
n 37.499653 -206.650768 m 37.070055 -207.008462 l 37.349202 -206.994264 l 37.528049 -207.209063 l cp s
0.100000 slw
[] 0 sd
[] 0 sd
0 slc
n 36.746454 -204.373684 m 34.671751 -203.180890 l s
[] 0 sd
0 slj
0 slc
n 34.346651 -202.993982 m 34.655513 -203.459926 l 34.671751 -203.180890 l 34.904723 -203.026458 l ef
n 34.346651 -202.993982 m 34.655513 -203.459926 l 34.671751 -203.180890 l 34.904723 -203.026458 l cp s
0.100000 slw
[] 0 sd
[] 0 sd
0 slc
n 30.606086 -230.805381 m 28.881774 -225.957522 l s
[] 0 sd
0 slj
0 slc
n 28.756105 -225.604206 m 28.688120 -226.159073 l 28.881774 -225.957522 l 29.159208 -225.991514 l ef
n 28.756105 -225.604206 m 28.688120 -226.159073 l 28.881774 -225.957522 l 29.159208 -225.991514 l cp s
0.100000 slw
[] 0 sd
[] 0 sd
0 slc
n 34.543875 -225.284777 m 36.714552 -219.738949 l s
[] 0 sd
0 slj
0 slc
n 36.851233 -219.389746 m 36.436189 -219.764230 l 36.714552 -219.738949 l 36.901794 -219.946471 l ef
n 36.851233 -219.389746 m 36.436189 -219.764230 l 36.714552 -219.738949 l 36.901794 -219.946471 l cp s
0.100000 slw
[] 0 sd
[] 0 sd
0 slc
n 26.347386 -222.868750 m 25.376203 -222.350159 l s
[] 0 sd
0 slj
0 slc
n 25.045409 -222.173523 m 25.368710 -222.629567 l 25.376203 -222.350159 l 25.604225 -222.188509 l ef
n 25.045409 -222.173523 m 25.368710 -222.629567 l 25.376203 -222.350159 l 25.604225 -222.188509 l cp s
1.000000 1.000000 1.000000 srgb
n 30.550200 -218.574080 m 34.548360 -216.575000 l 30.550200 -214.575920 l 26.552040 -216.575000 l ef
0.100000 slw
[] 0 sd
[] 0 sd
0 slj
0.000000 0.000000 0.000000 srgb
n 30.550200 -218.574080 m 34.548360 -216.575000 l 30.550200 -214.575920 l 26.552040 -216.575000 l cp s
(A=A') dup sw 2 div 30.550200 ex sub -216.930000 m
 gs 1 -1 sc sh gr
(\(check\)) dup sw 2 div 30.550200 ex sub -216.130000 m
 gs 1 -1 sc sh gr
0.100000 slw
[] 0 sd
[] 0 sd
0 slc
n 29.643119 -214.984149 m 26.992482 -210.335427 l s
[] 0 sd
0 slj
0 slc
n 26.806735 -210.009662 m 26.837221 -210.567847 l 26.992482 -210.335427 l 27.271575 -210.320184 l ef
n 26.806735 -210.009662 m 26.837221 -210.567847 l 26.992482 -210.335427 l 27.271575 -210.320184 l cp s
0.100000 slw
[] 0 sd
[] 0 sd
0 slc
n 28.690737 -222.114274 m 29.806365 -218.790857 l s
[] 0 sd
0 slj
0 slc
n 29.925704 -218.435352 m 29.529583 -218.829799 l 29.806365 -218.790857 l 30.003589 -218.988917 l ef
n 29.925704 -218.435352 m 29.529583 -218.829799 l 29.806365 -218.790857 l 30.003589 -218.988917 l cp s
0.100000 slw
[] 0 sd
[] 0 sd
0 slc
n 28.386506 -217.542139 m 25.390164 -218.881458 l s
[] 0 sd
0 slj
0 slc
n 25.047809 -219.034486 m 25.606302 -219.058686 l 25.390164 -218.881458 l 25.402264 -218.602212 l ef
n 25.047809 -219.034486 m 25.606302 -219.058686 l 25.390164 -218.881458 l 25.402264 -218.602212 l cp s
0.100000 slw
[] 0 sd
[] 0 sd
0 slc
n 39.245418 -206.194836 m 43.298155 -209.940539 l s
[] 0 sd
0 slj
0 slc
n 43.573546 -210.195067 m 43.376043 -209.672102 l 43.298155 -209.940539 l 43.036672 -210.039291 l ef
n 43.573546 -210.195067 m 43.376043 -209.672102 l 43.298155 -209.940539 l 43.036672 -210.039291 l cp s
0.100000 slw
[] 0 sd
[] 0 sd
0 slj
0 slc
n 44.982931 -210.190994 m 41.053031 -199.140984 39.516405 -195.796488 24.098214 -198.307432 c s
[] 0 sd
0 slj
0 slc
n 23.728090 -198.367709 m 24.261773 -198.534089 l 24.098214 -198.307432 l 24.181404 -198.040591 l ef
n 23.728090 -198.367709 m 24.261773 -198.534089 l 24.098214 -198.307432 l 24.181404 -198.040591 l cp s
0.100000 slw
[] 0 sd
[] 0 sd
0 slc
n 24.181482 -206.312871 m 20.744146 -202.305188 l s
[] 0 sd
0 slj
0 slc
n 20.500010 -202.020543 m 20.635761 -202.562827 l 20.744146 -202.305188 l 21.015287 -202.237312 l ef
n 20.500010 -202.020543 m 20.635761 -202.562827 l 20.744146 -202.305188 l 21.015287 -202.237312 l cp s
0.100000 slw
[] 0 sd
[] 0 sd
0 slc
n 16.403001 -212.737367 m 17.709089 -202.654504 l s
[] 0 sd
0 slj
0 slc
n 17.757262 -202.282611 m 17.445102 -202.746353 l 17.709089 -202.654504 l 17.940959 -202.810584 l ef
n 17.757262 -202.282611 m 17.445102 -202.746353 l 17.709089 -202.654504 l 17.940959 -202.810584 l cp s
0.100000 slw
[] 0 sd
[] 0 sd
0 slc
n 28.551137 -200.865056 m 24.132251 -200.190459 l s
[] 0 sd
0 slj
0 slc
n 23.761546 -200.133866 m 24.218091 -200.456460 l 24.132251 -200.190459 l 24.293548 -199.962187 l ef
n 23.761546 -200.133866 m 24.218091 -200.456460 l 24.132251 -200.190459 l 24.293548 -199.962187 l cp s
0.100000 slw
[] 0 sd
[] 0 sd
0 slc
n -7.361250 -237.699990 m -7.460021 -198.586792 l s
[] 0 sd
0 slj
0 slc
n -7.460968 -198.211793 m -7.709704 -198.712423 l -7.460021 -198.586792 l -7.209706 -198.711160 l ef
n -7.460968 -198.211793 m -7.709704 -198.712423 l -7.460021 -198.586792 l -7.209706 -198.711160 l cp s
0.100000 slw
[] 0 sd
[] 0 sd
0 slc
n -2.507811 -237.277456 m -6.925496 -237.568039 l s
[] 0 sd
0 slj
0 slc
n -7.299688 -237.592652 m -6.784357 -237.809295 l -6.925496 -237.568039 l -6.817175 -237.310373 l ef
n -7.299688 -237.592652 m -6.784357 -237.809295 l -6.925496 -237.568039 l -6.817175 -237.310373 l cp s
0.100000 slw
[] 0 sd
[] 0 sd
0 slc
n -2.850200 -231.108016 m -6.874586 -231.011644 l s
[] 0 sd
0 slj
0 slc
n -7.249479 -231.002667 m -6.755607 -231.264565 l -6.874586 -231.011644 l -6.743637 -230.764708 l ef
n -7.249479 -231.002667 m -6.755607 -231.264565 l -6.874586 -231.011644 l -6.743637 -230.764708 l cp s
0.100000 slw
[] 0 sd
[] 0 sd
0 slc
n -2.200412 -224.988094 m -6.974480 -225.044263 l s
[] 0 sd
0 slj
0 slc
n -7.349454 -225.048675 m -6.846548 -225.292775 l -6.974480 -225.044263 l -6.852430 -224.792810 l ef
n -7.349454 -225.048675 m -6.846548 -225.292775 l -6.974480 -225.044263 l -6.852430 -224.792810 l cp s
0.100000 slw
[] 0 sd
[] 0 sd
0 slc
n -3.449993 -214.697984 m -7.174468 -214.732923 l s
[] 0 sd
0 slj
0 slc
n -7.549452 -214.736441 m -7.047128 -214.981740 l -7.174468 -214.732923 l -7.051819 -214.481762 l ef
n -7.549452 -214.736441 m -7.047128 -214.981740 l -7.174468 -214.732923 l -7.051819 -214.481762 l cp s
0.100000 slw
[] 0 sd
[] 0 sd
0 slc
n -3.049919 -208.515936 m -6.916942 -208.501773 l s
[] 0 sd
0 slj
0 slc
n -7.291940 -208.500399 m -6.792859 -208.752229 l -6.916942 -208.501773 l -6.791028 -208.252232 l ef
n -7.291940 -208.500399 m -6.792859 -208.752229 l -6.916942 -208.501773 l -6.791028 -208.252232 l cp s
0.100000 slw
[] 0 sd
[] 0 sd
0 slc
n -7.261250 -198.287490 m 11.924662 -199.034445 l s
[] 0 sd
0 slj
0 slc
n 12.299379 -199.049034 m 11.809483 -198.779771 l 11.924662 -199.034445 l 11.790031 -199.279393 l ef
n 12.299379 -199.049034 m 11.809483 -198.779771 l 11.924662 -199.034445 l 11.790031 -199.279393 l cp s
1.000000 1.000000 1.000000 srgb
n 9.615728 -210.164990 m 9.615728 -206.664990 l 17.438228 -206.664990 l 17.438228 -210.164990 l f
0.100000 slw
[] 0 sd
[] 0 sd
0 slj
0.000000 0.000000 0.000000 srgb
n 9.615728 -210.164990 m 9.615728 -206.664990 l 17.438228 -206.664990 l 17.438228 -210.164990 l cp s
(Let X be zero vector) dup sw 2 div 13.526978 ex sub -208.769990 m
 gs 1 -1 sc sh gr
(\(fallback\)) dup sw 2 div 13.526978 ex sub -207.969990 m
 gs 1 -1 sc sh gr
0.100000 slw
[] 0 sd
[] 0 sd
0 slc
n 14.436586 -206.615663 m 16.506772 -202.520555 l s
[] 0 sd
0 slj
0 slc
n 16.675955 -202.185888 m 16.227266 -202.519322 l 16.506772 -202.520555 l 16.673489 -202.744899 l ef
n 16.675955 -202.185888 m 16.227266 -202.519322 l 16.506772 -202.520555 l 16.673489 -202.744899 l cp s
(no) 14.378493 -235.940401 m
 gs 1 -1 sc sh gr
(yes) 18.778493 -231.340401 m
 gs 1 -1 sc sh gr
(yes) 4.328493 -237.302901 m
 gs 1 -1 sc sh gr
(no) 9.378493 -233.652901 m
 gs 1 -1 sc sh gr
(no) 9.028493 -228.002901 m
 gs 1 -1 sc sh gr
(yes) 3.828493 -231.402901 m
 gs 1 -1 sc sh gr
(yes) 3.528493 -225.490401 m
 gs 1 -1 sc sh gr
(no) 8.328493 -220.990401 m
 gs 1 -1 sc sh gr
(yes) 10.378493 -217.990401 m
 gs 1 -1 sc sh gr
(no) 7.528493 -216.690401 m
 gs 1 -1 sc sh gr
(no) 6.928493 -210.840401 m
 gs 1 -1 sc sh gr
(yes) 3.028493 -214.690401 m
 gs 1 -1 sc sh gr
(yes) 2.178493 -209.040401 m
 gs 1 -1 sc sh gr
(no) 8.378493 -209.027901 m
 gs 1 -1 sc sh gr
(yes) 23.078493 -230.502901 m
 gs 1 -1 sc sh gr
(no) 17.445300 -224.240401 m
 gs 1 -1 sc sh gr
(yes) 33.028493 -229.740401 m
 gs 1 -1 sc sh gr
(no) 28.578493 -228.740401 m
 gs 1 -1 sc sh gr
(yes) 25.745300 -221.990401 m
 gs 1 -1 sc sh gr
(no) 29.895300 -220.490401 m
 gs 1 -1 sc sh gr
(yes) 27.345300 -218.540401 m
 gs 1 -1 sc sh gr
(no) 27.478493 -212.740401 m
 gs 1 -1 sc sh gr
(yes) 37.328493 -226.290401 m
 gs 1 -1 sc sh gr
(no) 34.678493 -222.040401 m
 gs 1 -1 sc sh gr
(yes) 39.545300 -220.627901 m
 gs 1 -1 sc sh gr
(no) 43.045300 -219.377901 m
 gs 1 -1 sc sh gr
(yes) 34.595300 -204.177901 m
 gs 1 -1 sc sh gr
(no) 40.095300 -208.177901 m
 gs 1 -1 sc sh gr
1.000000 1.000000 1.000000 srgb
n 18.796550 -222.540401 m 18.796550 -218.390401 l 24.896550 -218.390401 l 24.896550 -222.540401 l f
0.100000 slw
[] 0 sd
[] 0 sd
0 slj
0.000000 0.000000 0.000000 srgb
n 18.796550 -222.540401 m 18.796550 -218.390401 l 24.896550 -218.390401 l 24.896550 -222.540401 l cp s
(Call symrcmm1) dup sw 2 div 21.846550 ex sub -220.820401 m
 gs 1 -1 sc sh gr
(with A, B) dup sw 2 div 21.846550 ex sub -220.020401 m
 gs 1 -1 sc sh gr
0.100000 slw
[] 0 sd
[] 0 sd
0 slj
0 slc
n 21.846550 -218.340141 m 21.846550 -215.462500 l 20.337267 -215.462500 l s
[] 0 sd
0 slj
0 slc
n 19.962267 -215.462500 m 20.462267 -215.712500 l 20.337267 -215.462500 l 20.462267 -215.212500 l ef
n 19.962267 -215.462500 m 20.462267 -215.712500 l 20.337267 -215.462500 l 20.462267 -215.212500 l cp s
showpage
